{
    "players": ["player1", "player2"],
    "games": [[
        {"player": "player1", "move": "1,1"},
        {"player": "player2", "move": "0,0"},
        {"player": "player1", "move": "1,2"},
        {"player": "player2", "move": "0,1"},
        {"player": "player1", "move": "1,0"}
    ],[
        {"player": "player2", "move": "1,1"},
        {"player": "player1", "move": "1,0"},
        {"player": "player2", "move": "2,2"},
        {"player": "player1", "move": "1,2"},
        {"player": "player2", "move": "0,0"}
    ]]
}